[gd_scene load_steps=3 format=2]

[ext_resource path="res://Scripts/lingkup.gd" type="Script" id=1]

[sub_resource type="SphereShape" id=1]
radius = 1.55925

[node name="Area" type="Area"]
transform = Transform( 10, 0, 0, 0, 3, 0, 0, 0, 3, 0, 0, 0 )
linear_damp = 32.964
angular_damp = 0.0
script = ExtResource( 1 )

[node name="CollisionShape" type="CollisionShape" parent="."]
shape = SubResource( 1 )

[node name="CSGMesh" type="CSGMesh" parent="."]
[connection signal="body_entered" from="." to="." method="_on_Area_body_entered"]
