[gd_scene load_steps=4 format=2]

[sub_resource type="SpatialMaterial" id=1]
albedo_color = Color( 0.0313726, 0, 0, 1 )

[sub_resource type="SpatialMaterial" id=2]
albedo_color = Color( 0, 0.152941, 0.976471, 1 )

[sub_resource type="SpatialMaterial" id=3]
albedo_color = Color( 0, 0, 0, 1 )

[node name="Lamp" type="CSGCombiner"]
use_collision = true

[node name="CSGCylinder" type="CSGCylinder" parent="."]
transform = Transform( 1, 0, 0, 0, 1, 0, 0, 0, 1, 0.0463443, -0.59214, 0 )
radius = 1.428
height = 0.001
cone = true
material = SubResource( 1 )

[node name="CSGCylinder2" type="CSGCylinder" parent="."]
transform = Transform( 1, 0, 0, 0, 1, 0, 0, 0, 1, 0.0813918, 0.331035, 0 )
radius = 0.247331
height = 1.75546
material = SubResource( 2 )

[node name="CSGPolygon" type="CSGPolygon" parent="."]
transform = Transform( 0.99998, -0.0063006, 0, 0.0063006, 0.99998, 0, 0, 0, 1, 0.0830833, 1.11688, -0.0100797 )
polygon = PoolVector2Array( 0.00990041, 0.156128, -0.101993, 0.296492, 0.376003, 0.698491, 0.971799, -0.00918365 )
mode = 1
spin_degrees = 360.0
spin_sides = 8
material = SubResource( 3 )

[node name="OmniLight" type="OmniLight" parent="."]
transform = Transform( 1, 0, 0, 0, 1, 0, 0, 0, 1, 0, 1.6239, 0 )
light_color = Color( 0.886275, 0.2, 0.0901961, 1 )
light_energy = 20.0
omni_range = 25.0
