[gd_scene load_steps=4 format=2]

[ext_resource path="res://Script/Player.gd" type="Script" id=1]
[ext_resource path="res://Assets/kenney_platformercharacters/PNG/Player/Poses/player_idle.png" type="Texture" id=2]

[sub_resource type="RectangleShape2D" id=1]
extents = Vector2( 63.3261, 60.2218 )

[node name="KinematicBody2D" type="KinematicBody2D"]
script = ExtResource( 1 )

[node name="CollisionShape2D" type="CollisionShape2D" parent="."]
shape = SubResource( 1 )

[node name="Sprite" type="Sprite" parent="."]
position = Vector2( 3.21576, -12.62 )
scale = Vector2( 2.22564, 1.24091 )
texture = ExtResource( 2 )
